…
``` r
totalnumber=homicides|>
  group_by(city_state)|>
  summarise(
    nobs=n(),
    unsolved= sum(disposition == "Closed without arrest" | disposition == "Open/No arrest") )|>
  arrange(desc(nobs))

totalnumber
```

    ## # A tibble: 51 × 3
    ##    city_state        nobs unsolved
    ##    <chr>            <int>    <int>
    ##  1 Chicago, IL       5535     4073
    ##  2 Philadelphia, PA  3037     1360
    ##  3 Houston, TX       2942     1493
    ##  4 Baltimore, MD     2827     1825
    ##  5 Detroit, MI       2519     1482
    ##  6 Los Angeles, CA   2257     1106
    ##  7 St. Louis, MO     1677      905
    ##  8 Dallas, TX        1567      754
    ##  9 Memphis, TN       1514      483
    ## 10 New Orleans, LA   1434      930
    ## # ℹ 41 more rows
…
    ## Warning: There was 1 warning in `mutate()`.
    ## ℹ In argument: `propresult = map2(unsolved, nobs, ~prop.test(.x, .y))`.
    ## Caused by warning in `prop.test()`:
    ## ! Chi-squared approximation may be incorrect

``` r
cityproptest 
```

    ## # A tibble: 51 × 4
    ##    city_state         estimate conf.low conf.high
    ##    <chr>                 <dbl>    <dbl>     <dbl>
    ##  1 Chicago, IL           0.736    0.724     0.747
    ##  2 New Orleans, LA       0.649    0.623     0.673
    ##  3 Baltimore, MD         0.646    0.628     0.663
    ##  4 San Bernardino, CA    0.618    0.558     0.675
    ##  5 Buffalo, NY           0.612    0.569     0.654
    ##  6 Miami, FL             0.605    0.569     0.640
    ##  7 Stockton, CA          0.599    0.552     0.645
    ##  8 Detroit, MI           0.588    0.569     0.608
    ##  9 Phoenix, AZ           0.551    0.518     0.584
    ## 10 Denver, CO            0.542    0.485     0.598
    ## # ℹ 41 more rows
…
output = vector("list", 5000)

for (i in 1:5000) {
  output[[i]] = sim_t_test(30,mu=0)
}

sim_results0 = bind_rows(output)

sim_results0
```

    ## # A tibble: 5,000 × 2
    ##    estimate p.value
    ##       <dbl>   <dbl>
    ##  1    0.412  0.629 
    ##  2    0.664  0.368 
    ##  3    0.551  0.534 
    ##  4    0.567  0.487 
    ##  5   -1.65   0.0599
    ##  6    1.19   0.229 
    ##  7    0.334  0.738 
    ##  8   -1.19   0.209 
    ##  9    0.122  0.887 
    ## 10    0.684  0.472 
    ## # ℹ 4,990 more rows
…
``` r
final_results = bind_rows(all_results)|>
  relocate(mu,estimate)|>
  mutate(mu=as.factor(mu))

final_results
```

    ## # A tibble: 30,000 × 3
    ##    mu    estimate p.value
    ##    <fct>    <dbl>   <dbl>
    ##  1 1        1.52   0.0865
    ##  2 1        2.11   0.0159
    ##  3 1        2.01   0.0183
    ##  4 1        0.165  0.839 
    ##  5 1        0.108  0.912 
    ##  6 1        1.56   0.0682
    ##  7 1        2.04   0.0252
    ##  8 1        2.40   0.0154
    ##  9 1        2.15   0.0154
    ## 10 1        0.500  0.634 
    ## # ℹ 29,990 more rows
…
